%YAML 1.1
%TAG !u! tag:unity3d.com,2011:
--- !u!1 &185062
GameObject:
  m_ObjectHideFlags: 0
  m_CorrespondingSourceObject: {fileID: 0}
  m_PrefabInternal: {fileID: 100100000}
  serializedVersion: 6
  m_Component:
  - component: {fileID: 437028}
  - component: {fileID: 11494514}
  m_Layer: 0
  m_Name: Second Fist Stats
  m_TagString: Untagged
  m_Icon: {fileID: 0}
  m_NavMeshLayer: 0
  m_StaticEditorFlags: 0
  m_IsActive: 1
--- !u!4 &437028
Transform:
  m_ObjectHideFlags: 1
  m_CorrespondingSourceObject: {fileID: 0}
  m_PrefabInternal: {fileID: 100100000}
  m_GameObject: {fileID: 185062}
  m_LocalRotation: {x: 0, y: 0, z: 0, w: 1}
  m_LocalPosition: {x: 0, y: 0, z: 0}
  m_LocalScale: {x: 1, y: 1, z: 1}
  m_Children: []
  m_Father: {fileID: 0}
  m_RootOrder: 0
  m_LocalEulerAnglesHint: {x: 0, y: 0, z: 0}
--- !u!114 &11494514
MonoBehaviour:
  m_ObjectHideFlags: 1
  m_CorrespondingSourceObject: {fileID: 0}
  m_PrefabInternal: {fileID: 100100000}
  m_GameObject: {fileID: 185062}
  m_Enabled: 1
  m_EditorHideFlags: 0
  m_Script: {fileID: 11500000, guid: 255a704395e914510b81792e872f322f, type: 3}
  m_Name: 
  m_EditorClassIdentifier: 
  _sprite: {fileID: 21300000, guid: 984c3fc3622b5194b8bbdba03412c97b, type: 3}
  _name: Second Fist
  _raw_factions: 00000000
  _raw_mana_cost: 030000000000000000000000000000000000000000000000
  _card_type: 2
  _text: '<b>Opening gambit</b> : Give target nearby unit +3 attack until the end
    of your turn.'
  _attack: 3
  _health: 9
--- !u!1001 &100100000
Prefab:
  m_ObjectHideFlags: 1
  serializedVersion: 2
  m_Modification:
    m_TransformParent: {fileID: 0}
    m_Modifications: []
    m_RemovedComponents: []
  m_SourcePrefab: {fileID: 0}
  m_RootGameObject: {fileID: 185062}
  m_IsPrefabAsset: 1
