%YAML 1.1
%TAG !u! tag:unity3d.com,2011:
--- !u!1 &1343799899732464
GameObject:
  m_ObjectHideFlags: 0
  m_CorrespondingSourceObject: {fileID: 0}
  m_PrefabInstance: {fileID: 0}
  m_PrefabAsset: {fileID: 0}
  serializedVersion: 6
  m_Component:
  - component: {fileID: 4444951242547246}
  - component: {fileID: 114815379789031286}
  m_Layer: 0
  m_Name: Slahxo Stats
  m_TagString: Untagged
  m_Icon: {fileID: 0}
  m_NavMeshLayer: 0
  m_StaticEditorFlags: 0
  m_IsActive: 1
--- !u!4 &4444951242547246
Transform:
  m_ObjectHideFlags: 0
  m_CorrespondingSourceObject: {fileID: 0}
  m_PrefabInstance: {fileID: 0}
  m_PrefabAsset: {fileID: 0}
  m_GameObject: {fileID: 1343799899732464}
  m_LocalRotation: {x: 0, y: 0, z: 0, w: 1}
  m_LocalPosition: {x: 0, y: 0, z: 0}
  m_LocalScale: {x: 1, y: 1, z: 1}
  m_Children: []
  m_Father: {fileID: 0}
  m_RootOrder: 0
  m_LocalEulerAnglesHint: {x: 0, y: 0, z: 0}
--- !u!114 &114815379789031286
MonoBehaviour:
  m_ObjectHideFlags: 0
  m_CorrespondingSourceObject: {fileID: 0}
  m_PrefabInstance: {fileID: 0}
  m_PrefabAsset: {fileID: 0}
  m_GameObject: {fileID: 1343799899732464}
  m_Enabled: 1
  m_EditorHideFlags: 0
  m_Script: {fileID: 11500000, guid: 255a704395e914510b81792e872f322f, type: 3}
  m_Name: 
  m_EditorClassIdentifier: 
  _sprite: {fileID: 21300000, guid: 3b08f23cd2bb54750a7421634889fc03, type: 3}
  _name: Slahxo
  _raw_factions: 03000000
  _raw_mana_cost: 040000000000000000000000020000000000000000000000
  _card_type: 2
  _text: '<b>Opening gambit</b> : All adjacent allied units can attack and move again.'
  _attack: 4
  _health: 10
