%YAML 1.1
%TAG !u! tag:unity3d.com,2011:
--- !u!1 &2290635598120231715
GameObject:
  m_ObjectHideFlags: 0
  m_CorrespondingSourceObject: {fileID: 0}
  m_PrefabInstance: {fileID: 0}
  m_PrefabAsset: {fileID: 0}
  serializedVersion: 6
  m_Component:
  - component: {fileID: 2290635598120515789}
  - component: {fileID: 2290635598114839643}
  m_Layer: 0
  m_Name: Sunburn Stats
  m_TagString: Untagged
  m_Icon: {fileID: 0}
  m_NavMeshLayer: 0
  m_StaticEditorFlags: 0
  m_IsActive: 1
--- !u!4 &2290635598120515789
Transform:
  m_ObjectHideFlags: 0
  m_CorrespondingSourceObject: {fileID: 0}
  m_PrefabInstance: {fileID: 0}
  m_PrefabAsset: {fileID: 0}
  m_GameObject: {fileID: 2290635598120231715}
  m_LocalRotation: {x: 0, y: 0, z: 0, w: 1}
  m_LocalPosition: {x: 0, y: 0, z: 0}
  m_LocalScale: {x: 1, y: 1, z: 1}
  m_Children: []
  m_Father: {fileID: 0}
  m_RootOrder: 0
  m_LocalEulerAnglesHint: {x: 0, y: 0, z: 0}
--- !u!114 &2290635598114839643
MonoBehaviour:
  m_ObjectHideFlags: 0
  m_CorrespondingSourceObject: {fileID: 0}
  m_PrefabInstance: {fileID: 0}
  m_PrefabAsset: {fileID: 0}
  m_GameObject: {fileID: 2290635598120231715}
  m_Enabled: 1
  m_EditorHideFlags: 0
  m_Script: {fileID: 11500000, guid: 255a704395e914510b81792e872f322f, type: 3}
  m_Name: 
  m_EditorClassIdentifier: 
  _sprite: {fileID: 21300000, guid: 1ebf942e6b4851c4ca1c46f5ce3d8de8, type: 3}
  _name: Sunburn
  _related_cards_prefab_path: []
  _related_tiles_prefab_path: []
  _raw_factions: 03000000
  _raw_mana_cost: 000000000000000000000000000000000000000000000000
  _card_type: 4
  _text: Target character receives <b>Vulnerable 2</b> if it is a Unit, <b>Vulnerable
    1</b> for a turn if it is a General.
  _attack: 0
  _health: 0
