%YAML 1.1
%TAG !u! tag:unity3d.com,2011:
--- !u!1 &1722657154907892
GameObject:
  m_ObjectHideFlags: 0
  m_CorrespondingSourceObject: {fileID: 0}
  m_PrefabInstance: {fileID: 0}
  m_PrefabAsset: {fileID: 0}
  serializedVersion: 6
  m_Component:
  - component: {fileID: 4578334290656856}
  - component: {fileID: 114474602139943148}
  m_Layer: 0
  m_Name: Living Sand Stats
  m_TagString: Untagged
  m_Icon: {fileID: 0}
  m_NavMeshLayer: 0
  m_StaticEditorFlags: 0
  m_IsActive: 1
--- !u!4 &4578334290656856
Transform:
  m_ObjectHideFlags: 0
  m_CorrespondingSourceObject: {fileID: 0}
  m_PrefabInstance: {fileID: 0}
  m_PrefabAsset: {fileID: 0}
  m_GameObject: {fileID: 1722657154907892}
  m_LocalRotation: {x: 0, y: 0, z: 0, w: 1}
  m_LocalPosition: {x: 0, y: 0, z: 0}
  m_LocalScale: {x: 1, y: 1, z: 1}
  m_Children: []
  m_Father: {fileID: 0}
  m_RootOrder: 0
  m_LocalEulerAnglesHint: {x: 0, y: 0, z: 0}
--- !u!114 &114474602139943148
MonoBehaviour:
  m_ObjectHideFlags: 0
  m_CorrespondingSourceObject: {fileID: 0}
  m_PrefabInstance: {fileID: 0}
  m_PrefabAsset: {fileID: 0}
  m_GameObject: {fileID: 1722657154907892}
  m_Enabled: 1
  m_EditorHideFlags: 0
  m_Script: {fileID: 11500000, guid: 255a704395e914510b81792e872f322f, type: 3}
  m_Name: 
  m_EditorClassIdentifier: 
  _sprite: {fileID: 21300000, guid: c392af11cb7ff42df84933d080ae1c47, type: 3}
  _name: Living Sand
  _related_cards_prefab_path: []
  _related_tiles_prefab_path: []
  _raw_factions: 02000000
  _raw_mana_cost: 020000000000000001000000000000000000000000000000
  _card_type: 2
  _text: '<b>Opening gambit</b>: Summon or level up a ShiftingSand on target nearby
    tile<br><b>Dying Wish</b> : Summon or level up a Shifting Sand on this tile.'
  _attack: 3
  _health: 6
