%YAML 1.1
%TAG !u! tag:unity3d.com,2011:
--- !u!1 &1796972311970868
GameObject:
  m_ObjectHideFlags: 0
  m_CorrespondingSourceObject: {fileID: 0}
  m_PrefabInstance: {fileID: 0}
  m_PrefabAsset: {fileID: 0}
  serializedVersion: 6
  m_Component:
  - component: {fileID: 4915250909825882}
  - component: {fileID: 114120650094368226}
  m_Layer: 0
  m_Name: Protector Stats
  m_TagString: Untagged
  m_Icon: {fileID: 0}
  m_NavMeshLayer: 0
  m_StaticEditorFlags: 0
  m_IsActive: 1
--- !u!4 &4915250909825882
Transform:
  m_ObjectHideFlags: 0
  m_CorrespondingSourceObject: {fileID: 0}
  m_PrefabInstance: {fileID: 0}
  m_PrefabAsset: {fileID: 0}
  m_GameObject: {fileID: 1796972311970868}
  m_LocalRotation: {x: 0, y: 0, z: 0, w: 1}
  m_LocalPosition: {x: 0, y: 0, z: 0}
  m_LocalScale: {x: 1, y: 1, z: 1}
  m_Children: []
  m_Father: {fileID: 0}
  m_RootOrder: 0
  m_LocalEulerAnglesHint: {x: 0, y: 0, z: 0}
--- !u!114 &114120650094368226
MonoBehaviour:
  m_ObjectHideFlags: 0
  m_CorrespondingSourceObject: {fileID: 0}
  m_PrefabInstance: {fileID: 0}
  m_PrefabAsset: {fileID: 0}
  m_GameObject: {fileID: 1796972311970868}
  m_Enabled: 1
  m_EditorHideFlags: 0
  m_Script: {fileID: 11500000, guid: 255a704395e914510b81792e872f322f, type: 3}
  m_Name: 
  m_EditorClassIdentifier: 
  _sprite: {fileID: 21300000, guid: 65da6bcf3291541f8b0752293044a900, type: 3}
  _name: Protector
  _related_cards_prefab_path: []
  _related_tiles_prefab_path: []
  _keywords:
  - Provoke
  _raw_factions: 02000000
  _raw_mana_cost: 000000000000000000000000000000000000000000000000
  _card_type: 4
  _text: Give <b>Provoke</b> to a unit until the end of your opponent next turn.
  _attack: 0
  _health: 0
