%YAML 1.1
%TAG !u! tag:unity3d.com,2011:
--- !u!1 &1868844830844520
GameObject:
  m_ObjectHideFlags: 0
  m_CorrespondingSourceObject: {fileID: 0}
  m_PrefabInstance: {fileID: 0}
  m_PrefabAsset: {fileID: 0}
  serializedVersion: 6
  m_Component:
  - component: {fileID: 4879584696413920}
  - component: {fileID: 114293238504959122}
  m_Layer: 0
  m_Name: Thalthres Stats
  m_TagString: Untagged
  m_Icon: {fileID: 0}
  m_NavMeshLayer: 0
  m_StaticEditorFlags: 0
  m_IsActive: 1
--- !u!4 &4879584696413920
Transform:
  m_ObjectHideFlags: 0
  m_CorrespondingSourceObject: {fileID: 0}
  m_PrefabInstance: {fileID: 0}
  m_PrefabAsset: {fileID: 0}
  m_GameObject: {fileID: 1868844830844520}
  m_LocalRotation: {x: 0, y: 0, z: 0, w: 1}
  m_LocalPosition: {x: 0, y: 0, z: 0}
  m_LocalScale: {x: 1, y: 1, z: 1}
  m_Children: []
  m_Father: {fileID: 0}
  m_RootOrder: 0
  m_LocalEulerAnglesHint: {x: 0, y: 0, z: 0}
--- !u!114 &114293238504959122
MonoBehaviour:
  m_ObjectHideFlags: 0
  m_CorrespondingSourceObject: {fileID: 0}
  m_PrefabInstance: {fileID: 0}
  m_PrefabAsset: {fileID: 0}
  m_GameObject: {fileID: 1868844830844520}
  m_Enabled: 1
  m_EditorHideFlags: 0
  m_Script: {fileID: 11500000, guid: 255a704395e914510b81792e872f322f, type: 3}
  m_Name: 
  m_EditorClassIdentifier: 
  _sprite: {fileID: 7331216129722893873, guid: 187848c7ddac95a47b6ef3f0327b0771, type: 3}
  _name: Thalthres
  _related_cards_prefab_path: []
  _related_tiles_prefab_path: []
  _raw_factions: 02000000
  _raw_mana_cost: 050000000000000002000000000000000000000000000000
  _card_type: 2
  _text: Tackle
  _attack: 4
  _health: 16
