%YAML 1.1
%TAG !u! tag:unity3d.com,2011:
--- !u!1 &1252299866032430
GameObject:
  m_ObjectHideFlags: 0
  m_CorrespondingSourceObject: {fileID: 0}
  m_PrefabInstance: {fileID: 0}
  m_PrefabAsset: {fileID: 0}
  serializedVersion: 6
  m_Component:
  - component: {fileID: 4372779835039236}
  - component: {fileID: 114334977025972208}
  m_Layer: 0
  m_Name: Blacksmith Of War Stats
  m_TagString: Untagged
  m_Icon: {fileID: 0}
  m_NavMeshLayer: 0
  m_StaticEditorFlags: 0
  m_IsActive: 1
--- !u!4 &4372779835039236
Transform:
  m_ObjectHideFlags: 0
  m_CorrespondingSourceObject: {fileID: 0}
  m_PrefabInstance: {fileID: 0}
  m_PrefabAsset: {fileID: 0}
  m_GameObject: {fileID: 1252299866032430}
  m_LocalRotation: {x: 0, y: 0, z: 0, w: 1}
  m_LocalPosition: {x: 0, y: 0, z: 0}
  m_LocalScale: {x: 1, y: 1, z: 1}
  m_Children: []
  m_Father: {fileID: 0}
  m_RootOrder: 0
  m_LocalEulerAnglesHint: {x: 0, y: 0, z: 0}
--- !u!114 &114334977025972208
MonoBehaviour:
  m_ObjectHideFlags: 0
  m_CorrespondingSourceObject: {fileID: 0}
  m_PrefabInstance: {fileID: 0}
  m_PrefabAsset: {fileID: 0}
  m_GameObject: {fileID: 1252299866032430}
  m_Enabled: 1
  m_EditorHideFlags: 0
  m_Script: {fileID: 11500000, guid: 255a704395e914510b81792e872f322f, type: 3}
  m_Name: 
  m_EditorClassIdentifier: 
  _sprite: {fileID: 21300000, guid: 07060c574d8c3f243848ce1dabfddd3d, type: 3}
  _name: Blacksmith Of War
  _related_cards_prefab_path: []
  _related_tiles_prefab_path: []
  _raw_factions: 01000000
  _raw_mana_cost: 030000000200000000000000000000000000000000000000
  _card_type: 2
  _text: '<b>Opening gambit</b>: Target <b>Unit</b> in your hand gets +1/+3, <b>Tough
    1</b> and its cost is increased by 1 neutral mana and 1 green mana.'
  _attack: 3
  _health: 9
